{
  "links": [
    {
      "source": 1,
      "target": 2,
      "weight": 1
    },
    {
      "source": 1,
      "target": 3,
      "weight": 1
    }
  ],
  "nodes": [
    {
      "id": 1,
      "number": 8,
      "symbol": "O",
      "x": 2.5369,
      "y": -0.155
    },
    {
      "id": 2,
      "number": 1,
      "symbol": "H",
      "x": 3.0739,
      "y": 0.155
    },
    {
      "id": 3,
      "number": 1,
      "symbol": "H",
      "x": 2,
      "y": 0.155
    }
  ]
}